{
"security_rules": [
{
"name": "allow_ssh_sg_windows",
"priority": 100,
"direction": "Inbound",
"access": "Allow",
"protocol": "Tcp",
"source_port_range": "",
"destination_port_range": "22",
"source_address_prefix": "",
"destination_address_prefix": ""
},
{
"name": "allow_http_sg_windows",
"priority": 200,
"direction": "Inbound",
"access": "Allow",
"protocol": "Tcp",
"source_port_range": "",
"destination_port_range": "80",
"source_address_prefix": "",
"destination_address_prefix": ""
}
],
"subnet_name": "pubsubnet3",
"virtual_network_name": "pubvnet2",
"resource_group_name": "azure_infra",
"location": "East US",
"azurerm_public_ip_name": "vm_public_ip_windows",
"azurerm_public_ip_allocation_method": "Dynamic",
"azurerm_network_interface": "pmk-nic-windows",
"ip_configuration_name": "pmk-internal-windows",
"private_ip_address_allocation": "Dynamic",
"azurerm_network_security_group_name": "ssh_nsg_windows",
"azurerm_linux_virtual_machine_name": "pmk-vm-windows",
"azurerm_linux_virtual_machine_size": "Standard_D2s_v3",
"admin_username": "adminuser",
"admin_password": "Admin@1234567",
"source_image_reference_sku": "2019-datacenter-gensecond",
"os_disk_storage_account_type": "Standard_LRS",
"os_disk_caching": "ReadWrite"

}