{
    "apiVersion": "rbac.authorization.k8s.io/v1",
    "kind": "RoleBinding",
    "metadata": {
        "name": "read-pods",
        "namespace": "test"
    },
    "subjects": [
        {
            "kind": "User",
            "name": "jane",
            "apiGroup": "rbac.authorization.k8s.io"
        }
    ],
    "roleRef": {
        "kind": "Role",
        "name": "pod-reader",
        "apiGroup": "rbac.authorization.k8s.io"
    }
}